…
```r
stat %>% filter(str_detect(name, "MOINES")) %>% # look for "des moines"
  arrange(first_year, desc(last_year)) %>% # make sure the years we want are covered (1981-2010, 2018-2019)
  filter(element == "SNOW") # we need snowfall data
```

```
## # A tibble: 25 x 11
##    id    latitude longitude elevation state name  gsn_flag wmo_id element
##    <chr>    <dbl>     <dbl>     <dbl> <chr> <chr> <chr>     <dbl> <chr>  
##  1 USC0…     36.8    -104.      2018. NM    DES … <NA>         NA SNOW   
##  2 USC0…     36.8    -104.      1830  NM    DES … <NA>         NA SNOW   
##  3 USW0…     41.5     -93.7      292. IA    DES … GSN       72546 SNOW   
##  4 USC0…     41.6     -93.6      248. IA    DES … <NA>         NA SNOW   
##  5 USC0…     41.6     -93.6      252. IA    DES … <NA>         NA SNOW   
##  6 USC0…     41.7     -93.7      292. IA    DES … <NA>         NA SNOW   
##  7 US1I…     41.6     -93.7      261. IA    DES … <NA>         NA SNOW   
##  8 US1N…     36.6    -104.      1990  NM    DES … <NA>         NA SNOW   
##  9 US1I…     41.6     -93.7      258. IA    DES … <NA>         NA SNOW   
## 10 US1I…     41.6     -93.8      278  IA    WEST… <NA>         NA SNOW   
## # … with 15 more rows, and 2 more variables: first_year <dbl>,
## #   last_year <dbl>
```
…
