Making your projects more reproducible and efficient
…
---
# The [`tibble`](https://tibble.tidyverse.org/) 📦

A table structure with classes `"tbl_df", "tbl", "data.frame"`.

- Easy to create: `tbl <- tibble(x = rnorm(100), y= x*5 +2)` 
- Has nice printing qualities

```r
library(tibble)
as_tibble(iris)
```

```
## # A tibble: 150 x 5
##    Sepal.Length Sepal.Width Petal.Length Petal.Width Species
##           <dbl>       <dbl>        <dbl>       <dbl> <fct>  
##  1          5.1         3.5          1.4         0.2 setosa 
##  2          4.9         3            1.4         0.2 setosa 
##  3          4.7         3.2          1.3         0.2 setosa 
##  4          4.6         3.1          1.5         0.2 setosa 
##  5          5           3.6          1.4         0.2 setosa 
##  6          5.4         3.9          1.7         0.4 setosa 
##  7          4.6         3.4          1.4         0.3 setosa 
##  8          5           3.4          1.5         0.2 setosa 
##  9          4.4         2.9          1.4         0.2 setosa 
## 10          4.9         3.1          1.5         0.1 setosa 
## # … with 140 more rows
```
…
---
# `purrr` for modeling 

```r
bb_dat_mods %>% mutate(intercept = map_dbl(lms, ~coef(.)[1]),
                       slope = map_dbl(lms, ~coef(.)[2])) %>% 
  select(artist, track, intercept, slope) %>% 
  arrange(slope)
```

```
## # A tibble: 317 x 4
##    artist                track                   intercept  slope
##    <chr>                 <chr>                       <dbl>  <dbl>
##  1 SheDaisy              Deck The Halls              133.  -36.0 
##  2 Kenny G               Auld Lang Syne (The ...      89.9 -12.7 
##  3 Filter                Take A Picture               59.4  -2.40
##  4 Brooks, Garth         Do What You Gotta Do         84.1  -2.37
##  5 Westlife              Swear It Again               67.8  -2.33
##  6 Son By Four           A Puro Dolor (Purest...      80.8  -2.32
##  7 Blink-182             All The Small Things         60.6  -2.28
##  8 Red Hot Chili Peppers Otherside                    62.2  -2.27
##  9 Tritt, Travis         Best Of Intentions           73.9  -2.27
## 10 Rimes, LeAnn          I Need You                   64.4  -2.22
## # … with 307 more rows
```
…
